<svg width="170" height="40" viewBox="0 0 170 40" fill="none" xmlns="http://www.w3.org/2000/svg">
<path d="M22.4793 0H17.3396V18.2123H22.4793V0Z" fill="white"/>
<path d="M34.7698 15.866C34.658 15.7542 34.658 15.5308 34.5463 15.419L34.3229 14.9721L33.8759 14.19C33.5407 13.6313 33.2055 13.1844 32.8703 12.6257C32.6469 12.4023 32.5351 12.1788 32.3117 11.9553C32.0882 11.7319 31.9765 11.5084 31.753 11.285C31.5296 11.0615 31.3061 10.838 31.0826 10.6146C30.9709 10.5028 30.8592 10.3911 30.7474 10.2794L30.4122 10.0559C29.1832 9.05032 27.9541 8.15646 26.6134 7.5978V10.838C27.172 11.285 27.7307 11.7319 28.2893 12.2905L28.5128 12.514C28.6245 12.6257 28.6245 12.7375 28.7363 12.7375C28.848 12.9609 29.0715 13.0727 29.1832 13.2961C29.2949 13.5196 29.5184 13.6313 29.6301 13.8548C29.7418 14.0782 29.8536 14.3017 30.077 14.4134C30.3005 14.8604 30.524 15.3073 30.7474 15.6425L31.0826 16.3129L31.1944 16.6481C31.1944 16.7598 31.3061 16.8715 31.3061 16.9833C31.8647 18.771 32.0882 20.7822 31.8647 22.5699C31.6413 24.3576 31.0826 25.9218 30.4122 27.1509C30.3005 27.2626 30.3005 27.4861 30.1888 27.5978C30.077 27.7095 29.9653 27.8213 29.9653 28.0447C29.7418 28.2682 29.6301 28.6034 29.4067 28.8268C29.0715 29.2738 28.7363 29.609 28.4011 29.9442C28.0659 30.1676 27.9541 30.5028 27.7307 30.6146C27.6189 30.7263 27.5072 30.838 27.5072 30.838C27.5072 30.838 27.3955 30.9498 27.0603 31.1732C26.9485 31.285 26.7251 31.3967 26.5016 31.5084C26.2782 31.6201 26.0547 31.8436 25.8312 31.9553C24.7139 32.6257 23.0379 33.2961 20.915 33.5196C20.8033 33.5196 20.6916 33.5196 20.4681 33.5196C20.3564 33.5196 20.2446 33.5196 20.0212 33.5196C19.7977 33.5196 19.4625 33.5196 19.1273 33.5196C18.5687 33.4079 18.01 33.4079 17.3396 33.2961C16.1106 33.0727 14.9932 32.6257 13.8759 31.9553C12.7586 31.285 11.753 30.3911 10.9709 29.3855C10.1888 28.3799 9.51838 27.1509 9.07145 25.9218C8.62453 24.6928 8.51279 23.352 8.62453 22.1229C8.73626 20.8939 8.95972 19.6648 9.40665 18.5475C9.85358 17.4302 10.524 16.5364 11.1944 15.7542C11.8647 14.9721 12.6469 14.3017 13.429 13.8548C13.5407 13.7431 13.6525 13.7431 13.7642 13.6313V2.79333C11.9765 3.35199 9.85358 4.24585 7.8424 5.81009C6.38989 6.92741 5.04911 8.26819 3.82006 9.94417C2.59101 11.6201 1.58542 13.5196 0.915028 15.6425C0.244637 17.7654 -0.0905586 20 0.0211732 22.2347C0.132905 24.4693 0.691564 26.8157 1.58542 28.8268C2.47927 30.9498 3.82006 32.8492 5.3843 34.4134C6.94855 35.9777 8.73626 37.2067 10.6357 38.2123C12.5351 39.1062 14.4346 39.6648 16.334 39.8883C17.2279 40 18.2335 40 19.0156 40C19.4625 40 19.9094 39.8883 20.3564 39.8883C20.5798 39.8883 20.8033 39.8883 21.0268 39.7766C21.2502 39.7766 21.4737 39.6648 21.5854 39.6648C24.8256 39.1062 27.2837 37.7654 28.7363 36.6481C29.0715 36.4246 29.4067 36.0894 29.7418 35.866C30.077 35.6425 30.3005 35.419 30.4122 35.3073C30.7474 34.9721 30.9709 34.7486 30.9709 34.7486C30.9709 34.7486 31.0826 34.6369 31.3061 34.4134C31.5296 34.19 31.753 33.8548 32.1999 33.4079C32.5351 32.9609 32.9821 32.4023 33.429 31.7319C33.6525 31.3967 33.8759 31.0615 34.0994 30.6146C34.2111 30.3911 34.3229 30.2794 34.4346 30.0559C34.5463 29.8324 34.658 29.609 34.7698 29.3855C35.5519 27.5978 36.1106 25.3632 36.1106 23.0168C36.2223 20.6704 35.7754 18.2123 34.7698 15.866Z" fill="white"/>
<path d="M43.82 20.7822C44.2669 20.3353 44.7139 19.8883 45.1608 19.4414C45.6077 18.9945 46.1664 18.6593 46.725 18.4358C47.2837 18.1006 47.8424 17.9889 48.401 17.7654C48.9597 17.6537 49.6301 17.542 50.4122 17.542C51.5295 17.542 52.4234 17.7654 53.3172 18.1006C54.0993 18.4358 54.8815 18.9945 55.4401 19.6649C55.9988 20.3353 56.4457 21.1174 56.6692 22.0112C57.0044 22.9051 57.1161 23.9107 57.1161 25.028V37.6537H53.6524V25.028C53.6524 23.5755 53.3172 22.3464 52.6468 21.5643C51.9764 20.7822 50.9709 20.3353 49.5183 20.3353C48.5128 20.3353 47.5072 20.5587 46.6133 21.1174C45.7195 21.676 44.9373 22.2347 44.1552 23.1286V37.7654H40.6915V17.8772H42.8144C43.2614 17.8772 43.5966 18.1006 43.7083 18.5476L43.82 20.7822Z" fill="white"/>
<path d="M65.9429 8.82687V37.6537H62.4792V8.82687H65.9429Z" fill="white"/>
<path d="M75.9988 11.6202C75.9988 11.9554 75.8871 12.2905 75.7753 12.514C75.6636 12.8492 75.4402 13.0727 75.2167 13.2961C74.9932 13.5196 74.7698 13.7431 74.4346 13.8548C74.0994 13.9665 73.7642 14.0783 73.429 14.0783C73.0938 14.0783 72.7586 13.9665 72.5351 13.8548C72.1999 13.7431 71.9765 13.5196 71.753 13.2961C71.5295 13.0727 71.3061 12.8492 71.1943 12.514C71.0826 12.1788 70.9709 11.9554 70.9709 11.6202C70.9709 11.285 71.0826 10.9498 71.1943 10.6146C71.3061 10.2794 71.5295 10.0559 71.753 9.83245C71.9765 9.60898 72.1999 9.38552 72.5351 9.27379C72.8703 9.16206 73.0938 9.05032 73.429 9.05032C73.7642 9.05032 74.0994 9.16206 74.4346 9.27379C74.7698 9.38552 74.9932 9.60898 75.2167 9.83245C75.4402 10.0559 75.6636 10.2794 75.7753 10.6146C75.8871 10.9498 75.9988 11.285 75.9988 11.6202ZM75.2167 17.8771V37.6537H71.753V17.8771H75.2167Z" fill="white"/>
<path d="M84.2669 20.7822C84.7138 20.3353 85.1608 19.8883 85.6077 19.4414C86.0546 18.9945 86.6133 18.6593 87.1719 18.4358C87.7306 18.1006 88.2893 17.9889 88.8479 17.7654C89.4066 17.6537 90.077 17.542 90.8591 17.542C91.9764 17.542 92.8703 17.7654 93.7641 18.1006C94.5462 18.4358 95.3284 18.9945 95.887 19.6649C96.4457 20.3353 96.8926 21.1174 97.1161 22.0112C97.4513 22.9051 97.563 23.9107 97.563 25.028V37.6537H94.0993V25.028C94.0993 23.5755 93.7641 22.3464 93.0937 21.5643C92.4233 20.7822 91.4178 20.3353 89.9652 20.3353C88.9597 20.3353 87.9541 20.5587 87.0602 21.1174C86.1664 21.676 85.3842 22.2347 84.6021 23.1286V37.7654H81.1384V17.8772H83.2613C83.7083 17.8772 84.0435 18.1006 84.1552 18.5476L84.2669 20.7822Z" fill="white"/>
<path d="M118.904 34.8604C118.457 35.4191 118.01 35.866 117.34 36.2012C116.781 36.5364 116.111 36.8716 115.44 37.095C114.77 37.3185 114.099 37.542 113.317 37.6537C112.535 37.7654 111.865 37.8772 111.194 37.8772C109.854 37.8772 108.513 37.6537 107.395 37.2068C106.278 36.7599 105.273 36.0895 104.379 35.1956C103.485 34.3017 102.926 33.1844 102.368 31.8436C101.921 30.5029 101.697 29.0504 101.697 27.2626C101.697 25.9219 101.921 24.5811 102.368 23.352C102.814 22.123 103.373 21.1174 104.155 20.2235C104.937 19.3297 105.943 18.6593 107.06 18.1006C108.178 17.6537 109.518 17.3185 110.971 17.3185C112.2 17.3185 113.206 17.542 114.211 17.8772C115.217 18.3241 116.111 18.8828 116.781 19.5531C117.451 20.2235 118.122 21.2291 118.457 22.3464C118.904 23.4638 119.127 24.6928 119.127 26.1453C119.127 26.704 119.016 27.0392 118.904 27.2626C118.792 27.4861 118.569 27.4861 118.233 27.4861H105.049C105.049 28.7152 105.273 29.8325 105.608 30.7263C105.943 31.6202 106.39 32.4023 106.837 33.0727C107.395 33.7431 108.066 34.19 108.848 34.4135C109.63 34.6369 110.412 34.8604 111.418 34.8604C112.312 34.8604 113.094 34.7487 113.652 34.5252C114.323 34.3018 114.881 34.0783 115.328 33.8548C115.775 33.6314 116.111 33.4079 116.446 33.1844C116.781 32.961 117.004 32.8492 117.228 32.8492C117.563 32.8492 117.787 32.961 117.898 33.1844L118.904 34.8604ZM115.999 25.5867C115.999 24.8045 115.887 24.0224 115.664 23.352C115.44 22.6816 115.105 22.123 114.658 21.5643C114.211 21.0057 113.652 20.6705 113.094 20.447C112.423 20.2235 111.753 20.0001 110.971 20.0001C109.295 20.0001 107.954 20.447 107.06 21.4526C106.166 22.4582 105.496 23.799 105.273 25.4749H115.999V25.5867Z" fill="white"/>
<path d="M167.395 13.8548H133.764L128.066 18.4358V37.095C128.066 38.1006 129.071 38.8827 130.3 38.8827H167.395C168.625 38.8827 169.63 38.1006 169.63 37.095V15.6425C169.742 14.6369 168.625 13.8548 167.395 13.8548ZM142.479 30.0559C142.256 30.5028 142.032 30.9497 141.697 31.2849C141.362 31.6201 140.915 31.8436 140.468 32.0671C140.021 32.2905 139.463 32.4023 138.792 32.4023C138.457 32.4023 138.122 32.4023 137.675 32.2905C137.228 32.1788 137.004 32.0671 136.669 31.9553C136.334 31.8436 135.999 31.6201 135.775 31.5084C135.552 31.3967 135.217 31.1732 134.993 30.9497L135.664 29.9442C135.664 29.8324 135.775 29.8324 135.887 29.7207C135.999 29.609 136.111 29.609 136.111 29.609C136.222 29.609 136.334 29.609 136.557 29.7207C136.781 29.8324 136.893 29.9442 137.116 30.0559C137.34 30.1676 137.563 30.2793 137.898 30.3911C138.233 30.5028 138.569 30.5028 138.904 30.5028C139.462 30.5028 140.021 30.3911 140.356 30.0559C140.692 29.7207 140.803 29.3855 140.803 28.8268C140.803 28.4916 140.692 28.2682 140.58 28.0447C140.468 27.8212 140.245 27.7095 140.021 27.5978C139.798 27.4861 139.463 27.3743 139.127 27.2626C138.792 27.1509 138.457 27.0391 138.122 26.9274C137.787 26.8157 137.451 26.7039 137.116 26.5922C136.781 26.4805 136.557 26.257 136.222 26.0335C135.999 25.8101 135.775 25.4749 135.664 25.1397C135.552 24.8045 135.44 24.3576 135.44 23.7989C135.44 23.352 135.552 23.0168 135.664 22.5698C135.775 22.1229 136.111 21.7877 136.334 21.5643C136.669 21.2291 137.004 21.0056 137.451 20.7821C137.898 20.5587 138.457 20.5587 139.016 20.5587C139.686 20.5587 140.356 20.6704 140.915 20.8939C141.474 21.1173 141.921 21.4525 142.368 21.7877L141.809 22.7933C141.697 22.905 141.697 23.0168 141.585 23.0168C141.474 23.0168 141.474 23.1285 141.362 23.1285C141.25 23.1285 141.138 23.1285 141.027 23.0168C140.915 22.905 140.692 22.7933 140.58 22.7933C140.468 22.7933 140.245 22.5698 139.909 22.5698C139.574 22.5698 139.351 22.4581 139.016 22.4581C138.68 22.4581 138.457 22.4581 138.233 22.5698C138.01 22.6816 137.787 22.7933 137.675 22.905C137.563 23.0168 137.451 23.1285 137.34 23.352C137.228 23.5754 137.228 23.6872 137.228 23.9106C137.228 24.1341 137.34 24.3576 137.451 24.581C137.563 24.8045 137.787 24.9162 138.01 25.028C138.233 25.1397 138.569 25.2514 138.904 25.3631C139.239 25.4749 139.574 25.5866 139.909 25.6983C140.245 25.8101 140.58 25.9218 140.915 26.1453C141.25 26.257 141.474 26.4805 141.809 26.7039C142.144 26.9274 142.256 27.2626 142.368 27.5978C142.479 27.933 142.591 28.3799 142.591 28.8268C142.703 29.0503 142.591 29.609 142.479 30.0559ZM147.954 32.1788H145.831V20.7821H147.954V32.1788ZM164.044 32.1788H162.144V24.8045C162.144 24.4693 162.144 24.2458 162.144 23.7989L158.68 30.2793C158.569 30.6145 158.233 30.7263 157.898 30.7263H157.563C157.228 30.7263 157.004 30.6145 156.781 30.2793L153.317 23.7989C153.317 24.0224 153.317 24.1341 153.317 24.3576C153.317 24.581 153.317 24.6928 153.317 24.8045V32.1788H151.418V20.7821H152.982C153.094 20.7821 153.206 20.7821 153.206 20.7821C153.317 20.7821 153.317 20.7821 153.429 20.7821C153.429 20.7821 153.541 20.7821 153.541 20.8939C153.541 21.0056 153.652 21.0056 153.652 21.1173L157.116 27.4861C157.228 27.7095 157.34 27.8212 157.34 28.0447C157.451 28.2682 157.451 28.3799 157.563 28.6034C157.675 28.3799 157.675 28.2682 157.787 28.0447C157.898 27.8212 157.898 27.7095 158.01 27.4861L161.362 21.2291C161.362 21.1173 161.474 21.1173 161.474 21.0056C161.474 20.8939 161.585 20.8939 161.585 20.8939C161.585 20.8939 161.697 20.8939 161.809 20.8939C161.921 20.8939 161.921 20.8939 162.032 20.8939H163.597V32.1788H164.044Z" fill="white"/>
</svg>
